[
    {
        "id": 1,
        "name": "le van hoang",
        "email": "hoangsnow@gmail.com",
        "username": "hoangsnow",
        "password": "1",
        "status": 0
    },
    {
        "id": 2,
        "name": "le van hoang",
        "email": "hoangsnow2@gmail.com",
        "username": "hoangsnow1",
        "password": "1",
        "status": 1
    },
    {
        "id": 3,
        "name": "le van hoang",
        "email": "hoangsnow3@gmail.com",
        "username": "hoangsnow2",
        "password": "1",
        "status": 0
    },
    {
        "id": 4,
        "name": "le van hoang",
        "email": "hoangsnow3@gmail.com",
        "username": "hoang",
        "password": "1",
        "status": 1
    }
]